{
    "project_slug": "my-fastapi",
    "project_name": "My Project Fastapi",
    "backend_cors_origins": "[\"http://localhost:3000\"]",
    "server_name": "localhost:4200",
    "server_host": "http://localhost4200",
    "secret_key": "",
    "first_superuser": "admin@test.com",
    "first_superuser_password": "password",
    "database_type": ["postgresql", "mysql"],
    "database_server": "db",
    "database_user": ["postgres", "mysql"],
    "database_password": "password",
    "database_name": "app",
    "docker_image_backend": "{{ cookiecutter.project_slug }}-api",
    "docker_image_db": "{{ cookiecutter.project_slug }}-db"
}
